{
"items":[
    {
      "customer":"5644b014985b3395ebb58eae",
      "destination":"A01",
      "address":"via Cristoni 80",
      "city":"Cambiale",
      "company":"ICM.S",
      "country":"Italy",
      "email":"email@icms.it",
      "fax":"0001234",
      "postal_code":"40122",
      "region":"Emilia Romagna",
      "telephone":"051223344"
    },
    {
      "customer":"5644b014985b3395ebb58eae",
      "destination":"A02",
      "address":"Via San Crispino",
      "city":"Padova",
      "company":"ICM.S",
      "country":"Italy",
      "email":"email@icms.it",
      "fax":"0001234",
      "postal_code":"89123",
      "region":"Veneto",
      "telephone":"0213456"
    },
    {
      "customer":"5644b01494036b48059176fe",
      "destination":"A03",
      "address":"Via Grassi",
      "city":"Torino",
      "company":"Fiat",
      "country":"Italy",
      "email":"email@fiat.it",
      "fax":"001234",
      "postal_code":"90876",
      "region":"Piemonte",
      "telephone":"0654321"
    }
]
}

