{
  "items":
  [

    {
      "id":"01",
      "name":"Coded Destination",
      "tooltip":"Default Destination"
    },
    {
      "id":"02",
      "name":"Manual Destination",
      "tooltip":"Actual Order Destination Only"
    }

  ]
}
