[
  {
    "orderId": "00001234",
    "customerId": "5644b014985b3395ebb58eae",
    "companyName": "ICMS",
    "rifOrder": "AA01",
    "basketType": "BT01",
    "destination": "A01",
    "paymentMethod": "C",
    "paymentCondition": "PC01",
    "resa1": "R01",
    "resa2": "",
    "meansShipping": "MS01",
    "totalEvasion": "X",
    "appointmentToDelivery": "ATD01",
    "deliveryType": "DT01",
    "chargeTrasport": "CT01",
    "IVACode": "IVA01",
    "validDateList": "23/11/2015",
    "availableDate": "23/11/2015",
    "orderReason": "OR01",
    "positions": {
      "results": [
        {
          "orderId": "00001234",
          "positionId": "01",
          "quantity": "4",
          "totalListPrice": "100",
          "totalNetPrice": "80",
          "discountApplyed": "20",

          "productId": "A01",
          "scale": "PZ",
          "description": "Prodotto di cat 1",
          "unitListPrice": "25",
          "unitNetPrice": "20"
      },
        {
          "orderId": "00001234",
          "positionId": "02",
          "quantity": "5",
          "totalListPrice": "100",
          "totalNetPrice": "90",
          "discountApplyed": "10",

          "productId": "A02",
          "scale": "PZ",
          "description": "Prodotto di cat 2",
          "unitListPrice": "20",
          "unitNetPrice": "18"
      }
    ]
    }
    
  }
]