{
  "items":
  [
    {
      "id":"IT",
      "name":"Italia",
      "zones":
      [
        {
          "id":"RA",
          "name":"Ravenna"
        },
        {
          "id":"BO",
          "name":"Bologna"
        },
        {
          "id":"VE",
          "name":"Verona"
        }
      ]
    },
    {
      "id":"FR",
      "name":"Francia",
      "zones":
      [
        {
          "id":"FR-A",
          "name":"Alsazia"
        },
        {
          "id":"FR-M",
          "name":"Lorena"
        },
        {
          "id":"FR-Q",
          "name":"Alta Normandia"
        }
      ]
    },
    {
      "id":"GE",
      "name":"Germania",
      "zones":
      [
        {
          "id":"BY",
          "name":"Baviera"
        },
        {
          "id":"Brema",
          "name":"HB"
        },
        {
          "id":"Berlino",
          "name":"BE"
        }
      ]
    },
    {
      "id":"SP",
      "name":"Spagna",
      "zones":
      [
        {
          "id":"BI",
          "name":"Paesi Baschi"
        },
        {
          "id":"B",
          "name":"Catalogna"
        },
        {
          "id":"V",
          "name":"Comunidad Valenciana"
        }
      ]
    }
  ]
}
