{
  "items":
  [
    {
      "id":"R01",
      "name":"Franco Vettore"
    },
    {
      "id":"R02",
      "name":"Resa di tipo 2"
    },
    {
      "id":"R03",
      "name":"Resa di tipo 3"
    }
  ]
}
