[
  {
    "salesOrg":"SA10",
    "salesOrgName":"Gas Boiler Division",
    "distributionChannel":"DO",
    "distributionChannelName":"Domestic",
    "division":"BR",
    "divisionName":"Beretta"
  },
  {
    "salesOrg":"SA10",
    "salesOrgName":"Gas Boiler Division",
    "distributionChannel":"DO",
    "distributionChannelName":"Domestic",
    "division":"SM",
    "divisionName":"Multi Brand"
  },
  {
    "salesOrg":"SA10",
    "salesOrgName":"Gas Boiler Division",
    "distributionChannel":"DO",
    "distributionChannelName":"Domestic",
    "division":"SY",
    "divisionName":"Sylber"
  },
  {
    "salesOrg":"SA10",
    "salesOrgName":"Gas Boiler Division",
    "distributionChannel":"EX",
    "distributionChannelName":"Export",
    "division":"SM",
    "divisionName":"Multi Brand"
  },
  {
    "salesOrg":"SA10",
    "salesOrgName":"Gas Boiler Division",
    "distributionChannel":"IN",
    "distributionChannelName":"Inter-company",
    "division":"SM",
    "divisionName":"Multi Brand"
  },
  {
    "salesOrg":"SA10",
    "salesOrgName":"Gas Boiler Division",
    "distributionChannel":"PV",
    "distributionChannelName":"AfterSale/Merchandis",
    "division":"BR",
    "divisionName":"Beretta"
  },
  {
    "salesOrg":"SA10",
    "salesOrgName":"Gas Boiler Division",
    "distributionChannel":"PV",
    "distributionChannelName":"AfterSale/Merchandis",
    "division":"SY",
    "divisionName":"Sylber"
  },
  {
    "salesOrg":"SA15",
    "salesOrgName":"Gas Boiler Poland",
    "distributionChannel":"DO",
    "distributionChannelName":"Domestic",
    "division":"SM",
    "divisionName":"Multi Brand"
  },
  {
    "salesOrg":"SA15",
    "salesOrgName":"Gas Boiler Poland",
    "distributionChannel":"EX",
    "distributionChannelName":"Export",
    "division":"SM",
    "divisionName":"Multi Brand"
  },
  {
    "salesOrg":"SA15",
    "salesOrgName":"Gas Boiler Poland",
    "distributionChannel":"IN",
    "distributionChannelName":"Inter-company",
    "division":"SM",
    "divisionName":"Multi Brand"
  },
  {
    "salesOrg":"SA15",
    "salesOrgName":"Gas Boiler Poland",
    "distributionChannel":"PV",
    "distributionChannelName":"AfterSale/Merchandis",
    "division":"SM",
    "divisionName":"Multi Brand"
  },
  {
    "salesOrg":"SA20",
    "salesOrgName":"Riello Division",
    "distributionChannel":"DO",
    "distributionChannelName":"Domestic",
    "division":"RI",
    "divisionName":"Riello Trade"
  },
  {
    "salesOrg":"SA20",
    "salesOrgName":"Riello Division",
    "distributionChannel":"DO",
    "distributionChannelName":"Domestic",
    "division":"TH",
    "divisionName":"Thermital"
  },
  {
    "salesOrg":"SA20",
    "salesOrgName":"Riello Division",
    "distributionChannel":"EX",
    "distributionChannelName":"Export",
    "division":"RI",
    "divisionName":"Riello Trade"
  },
  {
    "salesOrg":"SA20",
    "salesOrgName":"Riello Division",
    "distributionChannel":"EX",
    "distributionChannelName":"Export",
    "division":"SM",
    "divisionName":"Multi Brand"
  },
  {
    "salesOrg":"SA20",
    "salesOrgName":"Riello Division",
    "distributionChannel":"EX",
    "distributionChannelName":"Export",
    "division":"TH",
    "divisionName":"Thermital"
  },
  {
    "salesOrg":"SA20",
    "salesOrgName":"Riello Division",
    "distributionChannel":"IN",
    "distributionChannelName":"Inter-company",
    "division":"SM",
    "divisionName":"Multi Brand"
  },
  {
    "salesOrg":"SA20",
    "salesOrgName":"Riello Division",
    "distributionChannel":"PV",
    "distributionChannelName":"AfterSale/Merchandis",
    "division":"RI",
    "divisionName":"Riello Trade"
  },
  {
    "salesOrg":"SA20",
    "salesOrgName":"Riello Division",
    "distributionChannel":"PV",
    "distributionChannelName":"AfterSale/Merchandis",
    "division":"TH",
    "divisionName":"Thermital"
  },
  {
    "salesOrg":"SA25",
    "salesOrgName":"Fontecal SPA",
    "distributionChannel":"DO",
    "distributionChannelName":"Domestic",
    "division":"FO",
    "divisionName":"Fontecal"
  },
  {
    "salesOrg":"SA25",
    "salesOrgName":"Fontecal SPA",
    "distributionChannel":"DO",
    "distributionChannelName":"Domestic",
    "division":"SM",
    "divisionName":"Multi Brand"
  },
  {
    "salesOrg":"SA25",
    "salesOrgName":"Fontecal SPA",
    "distributionChannel":"EX",
    "distributionChannelName":"Export",
    "division":"FO",
    "divisionName":"Fontecal"
  },
  {
    "salesOrg":"SA25",
    "salesOrgName":"Fontecal SPA",
    "distributionChannel":"EX",
    "distributionChannelName":"Export",
    "division":"SM",
    "divisionName":"Multi Brand"
  },
  {
    "salesOrg":"SA25",
    "salesOrgName":"Fontecal SPA",
    "distributionChannel":"IN",
    "distributionChannelName":"Inter-company",
    "division":"FO",
    "divisionName":"Fontecal"
  },
  {
    "salesOrg":"SA25",
    "salesOrgName":"Fontecal SPA",
    "distributionChannel":"IN",
    "distributionChannelName":"Inter-company",
    "division":"SM",
    "divisionName":"Multi Brand"
  },
  {
    "salesOrg":"SA25",
    "salesOrgName":"Fontecal SPA",
    "distributionChannel":"PV",
    "distributionChannelName":"AfterSale/Merchandis",
    "division":"FO",
    "divisionName":"Fontecal"
  },
  {
    "salesOrg":"SA30",
    "salesOrgName":"Burners Division",
    "distributionChannel":"DO",
    "distributionChannelName":"Domestic",
    "division":"SM",
    "divisionName":"Multi Brand"
  },
  {
    "salesOrg":"SA30",
    "salesOrgName":"Burners Division",
    "distributionChannel":"EX",
    "distributionChannelName":"Export",
    "division":"SM",
    "divisionName":"Multi Brand"
  },
  {
    "salesOrg":"SA30",
    "salesOrgName":"Burners Division",
    "distributionChannel":"IN",
    "distributionChannelName":"Inter-company",
    "division":"SM",
    "divisionName":"Multi Brand"
  },
  {
    "salesOrg":"SA30",
    "salesOrgName":"Burners Division",
    "distributionChannel":"PV",
    "distributionChannelName":"AfterSale/Merchandis",
    "division":"SM",
    "divisionName":"Multi Brand"
  },
  {
    "salesOrg":"SA40",
    "salesOrgName":"FIT Service",
    "distributionChannel":"DO",
    "distributionChannelName":"Domestic",
    "division":"BD",
    "divisionName":"Burners"
  },
  {
    "salesOrg":"SA40",
    "salesOrgName":"FIT Service",
    "distributionChannel":"DO",
    "distributionChannelName":"Domestic",
    "division":"BR",
    "divisionName":"Beretta"
  },
  {
    "salesOrg":"SA40",
    "salesOrgName":"FIT Service",
    "distributionChannel":"DO",
    "distributionChannelName":"Domestic",
    "division":"CF",
    "divisionName":"Commercializzati FIT"
  },
  {
    "salesOrg":"SA40",
    "salesOrgName":"FIT Service",
    "distributionChannel":"DO",
    "distributionChannelName":"Domestic",
    "division":"FO",
    "divisionName":"Fontecal"
  },
  {
    "salesOrg":"SA40",
    "salesOrgName":"FIT Service",
    "distributionChannel":"DO",
    "distributionChannelName":"Domestic",
    "division":"RI",
    "divisionName":"Riello Trade"
  },
  {
    "salesOrg":"SA40",
    "salesOrgName":"FIT Service",
    "distributionChannel":"DO",
    "distributionChannelName":"Domestic",
    "division":"SM",
    "divisionName":"Multi Brand"
  },
  {
    "salesOrg":"SA40",
    "salesOrgName":"FIT Service",
    "distributionChannel":"DO",
    "distributionChannelName":"Domestic",
    "division":"SY",
    "divisionName":"Sylber"
  },
  {
    "salesOrg":"SA40",
    "salesOrgName":"FIT Service",
    "distributionChannel":"DO",
    "distributionChannelName":"Domestic",
    "division":"TH",
    "divisionName":"Thermital"
  },
  {
    "salesOrg":"SA40",
    "salesOrgName":"FIT Service",
    "distributionChannel":"EX",
    "distributionChannelName":"Export",
    "division":"BD",
    "divisionName":"Burners"
  },
  {
    "salesOrg":"SA40",
    "salesOrgName":"FIT Service",
    "distributionChannel":"EX",
    "distributionChannelName":"Export",
    "division":"BR",
    "divisionName":"Beretta"
  },
  {
    "salesOrg":"SA40",
    "salesOrgName":"FIT Service",
    "distributionChannel":"EX",
    "distributionChannelName":"Export",
    "division":"CF",
    "divisionName":"Commercializzati FIT"
  },
  {
    "salesOrg":"SA40",
    "salesOrgName":"FIT Service",
    "distributionChannel":"EX",
    "distributionChannelName":"Export",
    "division":"FO",
    "divisionName":"Fontecal"
  },
  {
    "salesOrg":"SA40",
    "salesOrgName":"FIT Service",
    "distributionChannel":"EX",
    "distributionChannelName":"Export",
    "division":"RI",
    "divisionName":"Riello Trade"
  },
  {
    "salesOrg":"SA40",
    "salesOrgName":"FIT Service",
    "distributionChannel":"EX",
    "distributionChannelName":"Export",
    "division":"SY",
    "divisionName":"Sylber"
  },
  {
    "salesOrg":"SA40",
    "salesOrgName":"FIT Service",
    "distributionChannel":"EX",
    "distributionChannelName":"Export",
    "division":"TH",
    "divisionName":"Thermital"
  },
  {
    "salesOrg":"SA40",
    "salesOrgName":"FIT Service",
    "distributionChannel":"IN",
    "distributionChannelName":"Inter-company",
    "division":"SM",
    "divisionName":"Multi Brand"
  },
  {
    "salesOrg":"SA40",
    "salesOrgName":"FIT Service",
    "distributionChannel":"NE",
    "distributionChannelName":"Shop FIT",
    "division":"BD",
    "divisionName":"Burners"
  },
  {
    "salesOrg":"SA40",
    "salesOrgName":"FIT Service",
    "distributionChannel":"NE",
    "distributionChannelName":"Shop FIT",
    "division":"BR",
    "divisionName":"Beretta"
  },
  {
    "salesOrg":"SA40",
    "salesOrgName":"FIT Service",
    "distributionChannel":"NE",
    "distributionChannelName":"Shop FIT",
    "division":"CF",
    "divisionName":"Commercializzati FIT"
  },
  {
    "salesOrg":"SA40",
    "salesOrgName":"FIT Service",
    "distributionChannel":"NE",
    "distributionChannelName":"Shop FIT",
    "division":"FO",
    "divisionName":"Fontecal"
  },
  {
    "salesOrg":"SA40",
    "salesOrgName":"FIT Service",
    "distributionChannel":"NE",
    "distributionChannelName":"Shop FIT",
    "division":"RI",
    "divisionName":"Riello Trade"
  },
  {
    "salesOrg":"SA40",
    "salesOrgName":"FIT Service",
    "distributionChannel":"NE",
    "distributionChannelName":"Shop FIT",
    "division":"SY",
    "divisionName":"Sylber"
  },
  {
    "salesOrg":"SA40",
    "salesOrgName":"FIT Service",
    "distributionChannel":"NE",
    "distributionChannelName":"Shop FIT",
    "division":"TH",
    "divisionName":"Thermital"
  },
  {
    "salesOrg":"SA60",
    "salesOrgName":"Riello Canada",
    "distributionChannel":"DO",
    "distributionChannelName":"Domestic",
    "division":"SM",
    "divisionName":"Multi Brand"
  },
  {
    "salesOrg":"SA60",
    "salesOrgName":"Riello Canada",
    "distributionChannel":"EX",
    "distributionChannelName":"Export",
    "division":"SM",
    "divisionName":"Multi Brand"
  },
  {
    "salesOrg":"SA60",
    "salesOrgName":"Riello Canada",
    "distributionChannel":"IN",
    "distributionChannelName":"Inter-company",
    "division":"SM",
    "divisionName":"Multi Brand"
  },
  {
    "salesOrg":"SA65",
    "salesOrgName":"Riello Corp of Ameri",
    "distributionChannel":"DO",
    "distributionChannelName":"Domestic",
    "division":"SM",
    "divisionName":"Multi Brand"
  },
  {
    "salesOrg":"SA65",
    "salesOrgName":"Riello Corp of Ameri",
    "distributionChannel":"EX",
    "distributionChannelName":"Export",
    "division":"SM",
    "divisionName":"Multi Brand"
  },
  {
    "salesOrg":"SA65",
    "salesOrgName":"Riello Corp of Ameri",
    "distributionChannel":"IN",
    "distributionChannelName":"Inter-company",
    "division":"SM",
    "divisionName":"Multi Brand"
  },
  {
    "salesOrg":"SA80",
    "salesOrgName":"China InterCompany",
    "distributionChannel":"IN",
    "distributionChannelName":"Inter-company",
    "division":"SM",
    "divisionName":"Multi Brand"
  },
  {
    "salesOrg":"SA81",
    "salesOrgName":"China GasBoilers Div",
    "distributionChannel":"DO",
    "distributionChannelName":"Domestic",
    "division":"SM",
    "divisionName":"Multi Brand"
  },
  {
    "salesOrg":"SA81",
    "salesOrgName":"China GasBoilers Div",
    "distributionChannel":"EX",
    "distributionChannelName":"Export",
    "division":"SM",
    "divisionName":"Multi Brand"
  },
  {
    "salesOrg":"SA82",
    "salesOrgName":"China RielloTrade",
    "distributionChannel":"DO",
    "distributionChannelName":"Domestic",
    "division":"SM",
    "divisionName":"Multi Brand"
  },
  {
    "salesOrg":"SA82",
    "salesOrgName":"China RielloTrade",
    "distributionChannel":"EX",
    "distributionChannelName":"Export",
    "division":"SM",
    "divisionName":"Multi Brand"
  },
  {
    "salesOrg":"SA83",
    "salesOrgName":"China Burners Div",
    "distributionChannel":"DO",
    "distributionChannelName":"Domestic",
    "division":"SM",
    "divisionName":"Multi Brand"
  },
  {
    "salesOrg":"SA83",
    "salesOrgName":"China Burners Div",
    "distributionChannel":"EX",
    "distributionChannelName":"Export",
    "division":"SM",
    "divisionName":"Multi Brand"
  },
  {
    "salesOrg":"SA88",
    "salesOrgName":"Riello Trading Co.",
    "distributionChannel":"DO",
    "distributionChannelName":"Domestic",
    "division":"SM",
    "divisionName":"Multi Brand"
  },
  {
    "salesOrg":"SA88",
    "salesOrgName":"Riello Trading Co.",
    "distributionChannel":"EX",
    "distributionChannelName":"Export",
    "division":"SM",
    "divisionName":"Multi Brand"
  },
  {
    "salesOrg":"SA88",
    "salesOrgName":"Riello Trading Co.",
    "distributionChannel":"IN",
    "distributionChannelName":"Inter-company",
    "division":"SM",
    "divisionName":"Multi Brand"
  }
]
